[
    {
        "flag": true,
        "type": "person",
        "name": "Lucile Munoz",
        "email": "oceane.torp@brennan.us",
        "phone": "+1 (727) 809-1539",
        "id" : 7543,
        "status": "contacting",
        "feedback": {
            "rating": 1,
            "text": "test"
        }
    },
    {
        "flag": true,
        "type": "person",
        "name": "Winifred Henderson",
        "email": "landen_deckow@hotmail.com",
        "phone": "+1 (727) 809-1539",
        "id" : 9755,
        "status": "talked",
        "feedback": {
            "rating": null,
            "text": ""
        }
    },
    {
        "flag": false,
        "type": "person",
        "name": "Birdie Carson",
        "email": "dietrich_amiya@yahoo.com",
        "phone": "+1 (673) 223-7397",
        "id" : 3421,
        "status": "assessment",
        "feedback": {
            "rating": null,
            "text": ""
        }
    },
    {
        "flag": false,
        "type": "company",
        "name": "Family Care SF, Inc.",
        "email": "dorothy.lesch@dickinson.me",
        "phone": "+1 (727) 809-1539",
        "id" : 7675,
        "status": "signed",
        "feedback": {
            "rating": null,
            "text": ""
        }
    },
    {
        "flag": true,
        "type": "person",
        "name": "Barry Alexander",
        "email": "oceane.torp@brennan.us",
        "phone": "+1 (727) 809-1539",
        "id": 5553,
        "status": "cancel",
        "feedback": {
            "rating": null,
            "text": ""
        }
    }
]
